(footprint "PinSocket_1x06_P2.54mm_Vertical" (version 20211014) (generator pcbnew)
  (layer "F.Cu")
  (tedit 5A19A430)
  (descr "Through hole straight socket strip, 1x06, 2.54mm pitch, single row (from Kicad 4.0.7), script generated")
  (tags "Through hole socket strip THT 1x06 2.54mm single row")
  (property "Sheetfile" "/home/dijkstra/project/captouch/schematic/captouch.sch")
  (property "Sheetname" "")
  (attr through_hole)
  (fp_text reference "REF**" (at 0 -2.77) (layer "F.SilkS")
    (effects (font (size 1 1) (thickness 0.15)))
    (tstamp 688d1239-d366-46e2-9816-9a77fd2cec2d)
  )
  (fp_text value "PROGRAM" (at 0 15.47) (layer "F.Fab")
    (effects (font (size 1 1) (thickness 0.15)))
    (tstamp 52d75c57-0aa3-4559-97df-acc249967a68)
  )
  (fp_text user "${REFERENCE}" (at 0 6.35 90) (layer "F.Fab")
    (effects (font (size 1 1) (thickness 0.15)))
    (tstamp 29f2d0a8-2bfb-432d-92f3-8ca66ca2e1c3)
  )
  (fp_line (start -1.33 14.03) (end 1.33 14.03) (layer "F.SilkS") (width 0.12) (tstamp 272f5f3c-c54c-49f3-801a-a955dd88746d))
  (fp_line (start 0 -1.33) (end 1.33 -1.33) (layer "F.SilkS") (width 0.12) (tstamp 38d6d58f-e0b1-41a4-b692-9d38e33f4dc6))
  (fp_line (start -1.33 1.27) (end -1.33 14.03) (layer "F.SilkS") (width 0.12) (tstamp 462d4313-ee20-4151-ba92-4309a0aab4eb))
  (fp_line (start 1.33 1.27) (end 1.33 14.03) (layer "F.SilkS") (width 0.12) (tstamp 516e9cac-3a94-4009-a408-51ee6a09db24))
  (fp_line (start -1.33 1.27) (end 1.33 1.27) (layer "F.SilkS") (width 0.12) (tstamp 73cb8ada-79eb-453f-a6f0-f328f3d9c494))
  (fp_line (start 1.33 -1.33) (end 1.33 0) (layer "F.SilkS") (width 0.12) (tstamp a70cfd36-17c0-48b6-9c9e-ebc25321eab0))
  (fp_line (start 1.75 -1.8) (end 1.75 14.45) (layer "F.CrtYd") (width 0.05) (tstamp 159d3c5b-4f6d-4943-bb9b-8b5dd791e5ef))
  (fp_line (start -1.8 14.45) (end -1.8 -1.8) (layer "F.CrtYd") (width 0.05) (tstamp 46960e69-5fdc-4dd3-9641-8967511645df))
  (fp_line (start 1.75 14.45) (end -1.8 14.45) (layer "F.CrtYd") (width 0.05) (tstamp 4c59cdd6-0e6a-4955-a4c6-032f72c8a91f))
  (fp_line (start -1.8 -1.8) (end 1.75 -1.8) (layer "F.CrtYd") (width 0.05) (tstamp d5768aaa-2e20-4149-b72a-a0aca7281646))
  (fp_line (start 0.635 -1.27) (end 1.27 -0.635) (layer "F.Fab") (width 0.1) (tstamp 1d981a34-25f0-4806-b08c-28f47addf1fb))
  (fp_line (start -1.27 13.97) (end -1.27 -1.27) (layer "F.Fab") (width 0.1) (tstamp 2bfa6c13-2811-4866-b61f-78c074d34277))
  (fp_line (start 1.27 13.97) (end -1.27 13.97) (layer "F.Fab") (width 0.1) (tstamp 3bd9a809-c13c-4e20-8372-d88ad5b68b19))
  (fp_line (start -1.27 -1.27) (end 0.635 -1.27) (layer "F.Fab") (width 0.1) (tstamp 45a051e4-19d4-4ffe-b0e5-618a5acc5c0a))
  (fp_line (start 1.27 -0.635) (end 1.27 13.97) (layer "F.Fab") (width 0.1) (tstamp ce44811f-bc3a-445e-a71e-bede234b34bd))
  (pad "1" thru_hole rect (at 0 0 180) (size 1.7 1.7) (drill 1) (layers *.Cu *.Mask) (tstamp e1b2e0b3-dd7e-4b31-910c-eba280e42b90))
  (pad "2" thru_hole oval (at 0 2.54 180) (size 1.7 1.7) (drill 1) (layers *.Cu *.Mask) (tstamp 80e7f3ab-3eb7-4ef6-b429-d5ccd3ef408c))
  (pad "3" thru_hole oval (at 0 5.08 180) (size 1.7 1.7) (drill 1) (layers *.Cu *.Mask) (tstamp 0a0c6877-ccad-433b-b596-206f44b4e759))
  (pad "4" thru_hole oval (at 0 7.62 180) (size 1.7 1.7) (drill 1) (layers *.Cu *.Mask) (tstamp 00f72379-367a-4e97-991f-e3ed48939424))
  (pad "5" thru_hole oval (at 0 10.16 180) (size 1.7 1.7) (drill 1) (layers *.Cu *.Mask) (tstamp 09f8cb19-4714-4a0d-a5c8-9ffeff6df68c))
  (pad "6" thru_hole oval (at 0 12.7 180) (size 1.7 1.7) (drill 1) (layers *.Cu *.Mask) (tstamp 5c28d199-7626-4fb8-a5a0-282b9a660c60))
  (model "${KICAD6_3DMODEL_DIR}/Connector_PinSocket_2.54mm.3dshapes/PinSocket_1x06_P2.54mm_Vertical.wrl"
    (offset (xyz 0 0 0))
    (scale (xyz 1 1 1))
    (rotate (xyz 0 0 0))
  )
)
